[
	{
		"count": 92,
		"word": "So long."
	},
	{
		"count": 80,
		"word": "Farewell."
	},
	{
		"count": 43,
		"word": "Thanks."
	},
	{
		"count": 36,
		"word": "Greetings."
	},
	{
		"count": 22,
		"word": "No."
	},
	{
		"count": 21,
		"word": "Let's go."
	},
	{
		"count": 17,
		"word": "Mhm."
	},
	{
		"count": 17,
		"word": "What is it?"
	},
	{
		"count": 17,
		"word": "What?"
	},
	{
		"count": 17,
		"word": "Yes."
	},
	{
		"count": 16,
		"word": "Take \"care \" now."
	},
	{
		"count": 15,
		"word": "See you."
	},
	{
		"count": 14,
		"word": "Take care."
	},
	{
		"count": 13,
		"word": "Dammit."
	},
	{
		"count": 13,
		"word": "Lead the way."
	},
	{
		"count": 13,
		"word": "Meaning?"
	},
	{
		"count": 12,
		"word": "See you later."
	},
	{
		"count": 12,
		"word": "Geralt of Rivia."
	},
	{
		"count": 12,
		"word": "What now?"
	},
	{
		"count": 11,
		"word": "Thanks. So long."
	},
	{
		"count": 11,
		"word": "Thanks for your help."
	},
	{
		"count": 10,
		"word": "Why?"
	},
	{
		"count": 10,
		"word": "What happened?"
	},
	{
		"count": 8,
		"word": "Thank you."
	},
	{
		"count": 8,
		"word": "Show me what you got."
	},
	{
		"count": 8,
		"word": "What's this about?"
	},
	{
		"count": 8,
		"word": "You all right?"
	},
	{
		"count": 8,
		"word": "Got a minute?"
	},
	{
		"count": 7,
		"word": "See what I can do."
	},
	{
		"count": 7,
		"word": "What was that?"
	},
	{
		"count": 7,
		"word": "What's the problem?"
	},
	{
		"count": 7,
		"word": "Sorry."
	},
	{
		"count": 7,
		"word": "Good luck."
	},
	{
		"count": 7,
		"word": "Let's do this."
	},
	{
		"count": 7,
		"word": "What happened here?"
	},
	{
		"count": 7,
		"word": "Right."
	},
	{
		"count": 7,
		"word": "All right."
	},
	{
		"count": 7,
		"word": "Who are you?"
	},
	{
		"count": 7,
		"word": "Show me what you have in stock."
	},
	{
		"count": 7,
		"word": "I'm ready."
	},
	{
		"count": 6,
		"word": "Why not?"
	},
	{
		"count": 6,
		"word": "Huh?"
	},
	{
		"count": 6,
		"word": "Dammit!"
	},
	{
		"count": 6,
		"word": "What do you want?"
	},
	{
		"count": 6,
		"word": "Can we talk?"
	},
	{
		"count": 6,
		"word": "Hey there."
	},
	{
		"count": 6,
		"word": "Time I was on my way."
	},
	{
		"count": 6,
		"word": "Shit."
	},
	{
		"count": 6,
		"word": "Here."
	},
	{
		"count": 5,
		"word": "Shut up."
	},
	{
		"count": 5,
		"word": "What're you talking about?"
	},
	{
		"count": 5,
		"word": "Thanks. Farewell."
	},
	{
		"count": 5,
		"word": "Dammit..."
	},
	{
		"count": 5,
		"word": "Leave him alone."
	},
	{
		"count": 5,
		"word": "I'll be back."
	},
	{
		"count": 5,
		"word": "Yeah."
	},
	{
		"count": 5,
		"word": "What's going on here?"
	},
	{
		"count": 5,
		"word": "I do."
	},
	{
		"count": 5,
		"word": "Geralt of Rivia. Witcher."
	},
	{
		"count": 5,
		"word": "Agreed."
	},
	{
		"count": 5,
		"word": "I'm a witcher."
	},
	{
		"count": 5,
		"word": "Wouldn't mind a look at your stock."
	},
	{
		"count": 5,
		"word": "Take care now."
	},
	{
		"count": 5,
		"word": "May I?"
	},
	{
		"count": 5,
		"word": "Who?"
	},
	{
		"count": 5,
		"word": "I'm sorry."
	},
	{
		"count": 5,
		"word": "Hm?"
	},
	{
		"count": 4,
		"word": "Congratulations."
	},
	{
		"count": 4,
		"word": "Mhm..."
	},
	{
		"count": 4,
		"word": "I'm back."
	},
	{
		"count": 4,
		"word": "Excuse me?"
	},
	{
		"count": 4,
		"word": "Exactly."
	},
	{
		"count": 4,
		"word": "Like you to craft something for me."
	},
	{
		"count": 4,
		"word": "Show me what you have."
	},
	{
		"count": 4,
		"word": "Gotta go. So long."
	},
	{
		"count": 4,
		"word": "Let's go upstairs."
	},
	{
		"count": 4,
		"word": "Not yet."
	},
	{
		"count": 4,
		"word": "Hmm..."
	},
	{
		"count": 4,
		"word": "What happened then?"
	},
	{
		"count": 4,
		"word": "Another \"time \" maybe."
	},
	{
		"count": 4,
		"word": "But..."
	},
	{
		"count": 4,
		"word": "Ahem."
	},
	{
		"count": 4,
		"word": "No idea."
	},
	{
		"count": 4,
		"word": "What's the matter?"
	},
	{
		"count": 4,
		"word": "What do you have on offer?"
	},
	{
		"count": 4,
		"word": "None."
	},
	{
		"count": 4,
		"word": "Sure about that?"
	},
	{
		"count": 4,
		"word": "What're you doing here?"
	},
	{
		"count": 4,
		"word": "Great."
	},
	{
		"count": 4,
		"word": "How?"
	},
	{
		"count": 4,
		"word": "Just like that?"
	},
	{
		"count": 4,
		"word": "What is this place?"
	},
	{
		"count": 4,
		"word": "What happened to him?"
	},
	{
		"count": 4,
		"word": "Fine."
	},
	{
		"count": 4,
		"word": "Ugh!"
	},
	{
		"count": 4,
		"word": "We'll play another time."
	},
	{
		"count": 4,
		"word": "Come on."
	},
	{
		"count": 4,
		"word": "\"Farewell \" an Craite."
	},
	{
		"count": 4,
		"word": "What do you mean?"
	},
	{
		"count": 4,
		"word": "Wake up."
	},
	{
		"count": 3,
		"word": "I understand."
	},
	{
		"count": 3,
		"word": "Got a job for you."
	},
	{
		"count": 3,
		"word": "All right. Let's go."
	},
	{
		"count": 3,
		"word": "Go on."
	},
	{
		"count": 3,
		"word": "What about you?"
	},
	{
		"count": 3,
		"word": "But?"
	},
	{
		"count": 3,
		"word": "How's business?"
	},
	{
		"count": 3,
		"word": "Care for a round of gwent?"
	},
	{
		"count": 3,
		"word": "Name's Geralt."
	},
	{
		"count": 3,
		"word": "Hey! Wait!"
	},
	{
		"count": 3,
		"word": "Lemme think about it."
	},
	{
		"count": 3,
		"word": "Need to look around."
	},
	{
		"count": 3,
		"word": "Nice place."
	},
	{
		"count": 3,
		"word": "No buts."
	},
	{
		"count": 3,
		"word": "You're welcome."
	},
	{
		"count": 3,
		"word": "Why not."
	},
	{
		"count": 3,
		"word": "Nothing."
	},
	{
		"count": 3,
		"word": "What'd they want from you?"
	},
	{
		"count": 3,
		"word": "Me too."
	},
	{
		"count": 3,
		"word": "Namely?"
	},
	{
		"count": 3,
		"word": "Can't wait."
	},
	{
		"count": 3,
		"word": "Dandelion..."
	},
	{
		"count": 3,
		"word": "\"Sorry \" can't help you."
	},
	{
		"count": 3,
		"word": "Let's \"go \" then."
	},
	{
		"count": 3,
		"word": "I'm here."
	},
	{
		"count": 3,
		"word": "That oughta do it."
	},
	{
		"count": 3,
		"word": "\"Hm \" thanks."
	},
	{
		"count": 3,
		"word": "Don't know yet."
	},
	{
		"count": 3,
		"word": "What's this?"
	},
	{
		"count": 3,
		"word": "Get to the point."
	},
	{
		"count": 3,
		"word": "How's that?"
	},
	{
		"count": 3,
		"word": "Because?"
	},
	{
		"count": 3,
		"word": "..."
	},
	{
		"count": 3,
		"word": "Didn't answer my question."
	},
	{
		"count": 3,
		"word": "Let's try this..."
	},
	{
		"count": 3,
		"word": "Need another way in."
	},
	{
		"count": 3,
		"word": "Wait."
	},
	{
		"count": 3,
		"word": "See ya."
	},
	{
		"count": 3,
		"word": "Lemme see what you're offering."
	},
	{
		"count": 3,
		"word": "Mind if I have a look?"
	},
	{
		"count": 3,
		"word": "We know each other?"
	},
	{
		"count": 3,
		"word": "Willing to craft something for me?"
	},
	{
		"count": 3,
		"word": "\"Yeah \" \"sorry \" but I'm here to..."
	},
	{
		"count": 3,
		"word": "Lemme have a look."
	},
	{
		"count": 3,
		"word": "Dimwits."
	},
	{
		"count": 3,
		"word": "Dwarves?"
	},
	{
		"count": 3,
		"word": "You play gwent?"
	},
	{
		"count": 3,
		"word": "Ever play gwent?"
	},
	{
		"count": 3,
		"word": "Let's start."
	},
	{
		"count": 3,
		"word": "Maybe later."
	},
	{
		"count": 3,
		"word": "What did you do?"
	},
	{
		"count": 3,
		"word": "Outta my way."
	},
	{
		"count": 3,
		"word": "What do you need?"
	},
	{
		"count": 3,
		"word": "Take care of yourself."
	},
	{
		"count": 3,
		"word": "There it is."
	},
	{
		"count": 3,
		"word": "I should go."
	},
	{
		"count": 3,
		"word": "How can I help you?"
	},
	{
		"count": 3,
		"word": "Damn..."
	},
	{
		"count": 3,
		"word": "Do what you want."
	},
	{
		"count": 3,
		"word": "I win."
	},
	{
		"count": 3,
		"word": "You win."
	},
	{
		"count": 3,
		"word": "Had enough?"
	},
	{
		"count": 3,
		"word": "Mind if I interrupt?"
	},
	{
		"count": 3,
		"word": "What was that about?"
	},
	{
		"count": 3,
		"word": "Good."
	},
	{
		"count": 3,
		"word": "I'll think about it."
	},
	{
		"count": 3,
		"word": "Anyone home?"
	},
	{
		"count": 3,
		"word": "Let's get out of here."
	},
	{
		"count": 3,
		"word": "Leif's dead."
	},
	{
		"count": 3,
		"word": "Of course."
	},
	{
		"count": 3,
		"word": "Don't mention it."
	},
	{
		"count": 3,
		"word": "Fine. Lead the way."
	},
	{
		"count": 3,
		"word": "What was her motive?"
	},
	{
		"count": 3,
		"word": "Thanks for coming."
	},
	{
		"count": 2,
		"word": "What are you talking about? Who the hell attacked her?"
	},
	{
		"count": 2,
		"word": "\"Sorry \" Dandelion. Sorry I wasn't around."
	},
	{
		"count": 2,
		"word": "Where's Ciri?"
	},
	{
		"count": 2,
		"word": "Another victim."
	},
	{
		"count": 2,
		"word": "If you say so..."
	},
	{
		"count": 2,
		"word": "What's \"new \" old friend?"
	},
	{
		"count": 2,
		"word": "Seems not... Need to make some serious plans of our \"own \" now. It's gone too \"far \" dammit."
	},
	{
		"count": 2,
		"word": "That's a relief."
	},
	{
		"count": 2,
		"word": "Lemme try something else."
	},
	{
		"count": 2,
		"word": "Whose?"
	},
	{
		"count": 2,
		"word": "Thanks. For everything."
	},
	{
		"count": 2,
		"word": "Long story."
	},
	{
		"count": 2,
		"word": "Fine. Be right back."
	},
	{
		"count": 2,
		"word": "This the place?"
	},
	{
		"count": 2,
		"word": "Where to?"
	},
	{
		"count": 2,
		"word": "\"Sure \" why not."
	},
	{
		"count": 2,
		"word": "\"Nah \" come on. You wouldn't like it..."
	},
	{
		"count": 2,
		"word": "Is sacred in Toussaint. All right. Fine."
	},
	{
		"count": 2,
		"word": "Not at all."
	},
	{
		"count": 2,
		"word": "\"No \" but I hope to bring him back soon. Here to talk about Dudu."
	},
	{
		"count": 2,
		"word": "Thanks. And good luck."
	},
	{
		"count": 2,
		"word": "See \"you \" Keira."
	},
	{
		"count": 2,
		"word": "Need a minute."
	},
	{
		"count": 2,
		"word": "What'd he do to you?"
	},
	{
		"count": 2,
		"word": "Keira?"
	},
	{
		"count": 2,
		"word": "\"Smile \" Shani."
	},
	{
		"count": 2,
		"word": "Your Grace..."
	},
	{
		"count": 2,
		"word": "Hey! Hear the princess' command? Come up here!"
	},
	{
		"count": 2,
		"word": "Doppler and princess wed the same night."
	},
	{
		"count": 2,
		"word": "The servant's heart \"melted \" he wept at the sight."
	},
	{
		"count": 2,
		"word": "I see. All right... High time I set off."
	},
	{
		"count": 2,
		"word": "Calm down. It's over."
	},
	{
		"count": 2,
		"word": "\"Thanks \" see you later."
	},
	{
		"count": 2,
		"word": "I'm off. See you later."
	},
	{
		"count": 2,
		"word": "Show me what you're peddling."
	},
	{
		"count": 2,
		"word": "What've you got there?"
	},
	{
		"count": 2,
		"word": "Show me what you got behind the counter."
	},
	{
		"count": 2,
		"word": "\"Fine \" show me what you got."
	},
	{
		"count": 2,
		"word": "Craft something for \"me \" will you?"
	},
	{
		"count": 2,
		"word": "Right..."
	},
	{
		"count": 2,
		"word": "In the mood for a round of gwent?"
	},
	{
		"count": 2,
		"word": "Be back later."
	},
	{
		"count": 2,
		"word": "I'd like to change some coin."
	},
	{
		"count": 2,
		"word": "For what?"
	},
	{
		"count": 2,
		"word": "\"Damn \" something's seriously wrong here..."
	},
	{
		"count": 2,
		"word": "Something's not right..."
	},
	{
		"count": 2,
		"word": "Fine. I'll see what I can do."
	},
	{
		"count": 2,
		"word": "I'll get to work."
	},
	{
		"count": 2,
		"word": "Wrong."
	},
	{
		"count": 2,
		"word": "In the flesh."
	},
	{
		"count": 2,
		"word": "Need to find out where. I'd like to look at the corpse before it starts to decompose."
	},
	{
		"count": 2,
		"word": "Need to hurry."
	},
	{
		"count": 2,
		"word": "Easy..."
	},
	{
		"count": 2,
		"word": "Wait here."
	},
	{
		"count": 2,
		"word": "\"None shall sit and dine with you at your table  no spoon you have shall sate you  never again shall you wish to spy your reflection in the mirror.\""
	},
	{
		"count": 2,
		"word": "How much?"
	},
	{
		"count": 2,
		"word": "I'm investigating the Beast. On the duchess' orders."
	},
	{
		"count": 2,
		"word": "Nice tune."
	},
	{
		"count": 2,
		"word": "Let's look around."
	},
	{
		"count": 2,
		"word": "Ready. We can start."
	},
	{
		"count": 2,
		"word": "Ready."
	},
	{
		"count": 2,
		"word": "Someone's coming."
	},
	{
		"count": 2,
		"word": "You like?"
	},
	{
		"count": 2,
		"word": "Not here."
	},
	{
		"count": 2,
		"word": "Need a bit longer."
	},
	{
		"count": 2,
		"word": "Where're we going?"
	},
	{
		"count": 2,
		"word": "Oh yeah?"
	},
	{
		"count": 2,
		"word": "Uggh... Busted ribs... internal hemorrhage... Need to drink a healing potion. Fast."
	},
	{
		"count": 2,
		"word": "Wonder what happened to him."
	},
	{
		"count": 2,
		"word": "Promise to be careful."
	},
	{
		"count": 2,
		"word": "Count on it."
	},
	{
		"count": 2,
		"word": "Where's that?"
	},
	{
		"count": 2,
		"word": "What the hell happened?"
	},
	{
		"count": 2,
		"word": "Mhm. Could say that."
	},
	{
		"count": 2,
		"word": "Do just that. Farewell."
	},
	{
		"count": 2,
		"word": "Triss?"
	},
	{
		"count": 2,
		"word": "\"Thanks \" good game."
	},
	{
		"count": 2,
		"word": "Nothing here."
	},
	{
		"count": 2,
		"word": "Leave you to \"it \" then."
	},
	{
		"count": 2,
		"word": "Behold a \"kerchief \" proof of your love for another."
	},
	{
		"count": 2,
		"word": "We've met before..."
	},
	{
		"count": 2,
		"word": "Why're you here?"
	},
	{
		"count": 2,
		"word": "A witcher."
	},
	{
		"count": 2,
		"word": "There a problem?"
	},
	{
		"count": 2,
		"word": "Do just that."
	},
	{
		"count": 2,
		"word": "Pardon me?"
	},
	{
		"count": 2,
		"word": "What kind of work?"
	},
	{
		"count": 2,
		"word": "Phantom you told me about... still your tormentor?"
	},
	{
		"count": 2,
		"word": "Last one."
	},
	{
		"count": 2,
		"word": "Who might that be?"
	},
	{
		"count": 2,
		"word": "Yeah?"
	},
	{
		"count": 2,
		"word": "What about?"
	},
	{
		"count": 2,
		"word": "We're here."
	},
	{
		"count": 2,
		"word": "That was close."
	},
	{
		"count": 2,
		"word": "Any last words?"
	},
	{
		"count": 2,
		"word": "\"Hey \" wait! Dammit..."
	},
	{
		"count": 2,
		"word": "You could say that."
	},
	{
		"count": 2,
		"word": "Course I do."
	},
	{
		"count": 2,
		"word": "Wait. I wanna talk."
	},
	{
		"count": 2,
		"word": "Gladly."
	},
	{
		"count": 2,
		"word": "I'm Geralt of Rivia."
	},
	{
		"count": 2,
		"word": "That it? No other weeds or brews?"
	},
	{
		"count": 2,
		"word": "Let me have a look."
	},
	{
		"count": 2,
		"word": "Know any advanced \"formulae \" maybe something you could teach me?"
	},
	{
		"count": 2,
		"word": "Yearning to play a few rounds of gwent. That oughta set me straight."
	},
	{
		"count": 2,
		"word": "Shani?"
	},
	{
		"count": 2,
		"word": "Not really."
	},
	{
		"count": 2,
		"word": "Fine. See you there."
	},
	{
		"count": 2,
		"word": "Should look around."
	},
	{
		"count": 2,
		"word": "Life and \"death \" fire and blood."
	},
	{
		"count": 2,
		"word": "Fire and \"blood \" life and death."
	},
	{
		"count": 2,
		"word": "Hear that?"
	},
	{
		"count": 2,
		"word": "What're you getting at?"
	},
	{
		"count": 2,
		"word": "Rats."
	},
	{
		"count": 2,
		"word": "Think I'll pass."
	},
	{
		"count": 2,
		"word": "What then?"
	},
	{
		"count": 2,
		"word": "Spit it out."
	},
	{
		"count": 2,
		"word": "Gimme a minute. Need to prepare."
	},
	{
		"count": 2,
		"word": "I'll let you know."
	},
	{
		"count": 2,
		"word": "Gonna live?"
	},
	{
		"count": 2,
		"word": "Herbalist's hut near Oxenfurt. Knock on the \"door \" ask for yarrow extract."
	},
	{
		"count": 2,
		"word": "Satisfied?"
	},
	{
		"count": 2,
		"word": "Damn!"
	},
	{
		"count": 2,
		"word": "Another memory..."
	},
	{
		"count": 2,
		"word": "Locked."
	},
	{
		"count": 2,
		"word": "So that's how he whiled away the long winter evenings..."
	},
	{
		"count": 2,
		"word": "What the hell was that?"
	},
	{
		"count": 2,
		"word": "Not gonna hurt you."
	},
	{
		"count": 2,
		"word": "How do you know?"
	},
	{
		"count": 2,
		"word": "And if I don't?"
	},
	{
		"count": 2,
		"word": "Children delight in \"me \" elders take \"fright \" fair maids rejoice and spin."
	},
	{
		"count": 2,
		"word": "What the--?"
	},
	{
		"count": 2,
		"word": "Where'd it \"happen \" this attack?"
	},
	{
		"count": 2,
		"word": "Trail ends here. Hmm. Dirt and ground cover concealing a hatch. Secret passageway?"
	},
	{
		"count": 2,
		"word": "Some other \"time \" maybe."
	},
	{
		"count": 2,
		"word": "Nice meeting you."
	},
	{
		"count": 2,
		"word": "Show me your wares."
	},
	{
		"count": 2,
		"word": "Huh. So long."
	},
	{
		"count": 2,
		"word": "Lemme have a look at your stock."
	},
	{
		"count": 2,
		"word": "Need something crafted."
	},
	{
		"count": 2,
		"word": "Got anything to sell?"
	},
	{
		"count": 2,
		"word": "What're you offering?"
	},
	{
		"count": 2,
		"word": "Can you craft something for me?"
	},
	{
		"count": 2,
		"word": "Va fail."
	},
	{
		"count": 2,
		"word": "Like you to craft something for me..."
	},
	{
		"count": 2,
		"word": "Stole my daughter's medallion."
	},
	{
		"count": 2,
		"word": "\"No \" it won't. My daughter's dead."
	},
	{
		"count": 2,
		"word": "I'll try."
	},
	{
		"count": 2,
		"word": "Get outta here."
	},
	{
		"count": 2,
		"word": "Ciri!"
	},
	{
		"count": 2,
		"word": "Hmm."
	},
	{
		"count": 2,
		"word": "Ciri?"
	},
	{
		"count": 2,
		"word": "Sure you don't need any help?"
	},
	{
		"count": 2,
		"word": "How'd you wind up here?"
	},
	{
		"count": 2,
		"word": "What's going on?"
	},
	{
		"count": 2,
		"word": "I don't want your coin."
	},
	{
		"count": 2,
		"word": "Been tracking these dwarves for a while. About two days ahead of me now. Abandoned this camp in a \"hurry \" something must've scared them."
	},
	{
		"count": 2,
		"word": "That a threat?"
	},
	{
		"count": 2,
		"word": "I have no idea."
	},
	{
		"count": 2,
		"word": "Not here. You'll have ample opportunity soon \"enough \" witcher."
	},
	{
		"count": 2,
		"word": "Wanted to ask you..."
	},
	{
		"count": 2,
		"word": "Let's."
	},
	{
		"count": 2,
		"word": "I'm ready to fight."
	},
	{
		"count": 2,
		"word": "Never mind. So long."
	},
	{
		"count": 2,
		"word": "Some other time."
	},
	{
		"count": 2,
		"word": "Wanna fight again."
	},
	{
		"count": 2,
		"word": "Take \"care \" kid."
	},
	{
		"count": 2,
		"word": "Tracks lead to the cave."
	},
	{
		"count": 2,
		"word": "Depends."
	},
	{
		"count": 2,
		"word": "Let's talk about my reward."
	},
	{
		"count": 2,
		"word": "See you soon."
	},
	{
		"count": 2,
		"word": "A round of gwent?"
	},
	{
		"count": 2,
		"word": "\"Sure \" let's play."
	},
	{
		"count": 2,
		"word": "We'll play some other time."
	},
	{
		"count": 2,
		"word": "Well? What do you want?"
	},
	{
		"count": 2,
		"word": "Problem solved."
	},
	{
		"count": 2,
		"word": "Let's dance."
	},
	{
		"count": 2,
		"word": "I'll try another time."
	},
	{
		"count": 2,
		"word": "We'll talk later."
	},
	{
		"count": 2,
		"word": "Fine. See what I can do."
	},
	{
		"count": 2,
		"word": "Changed my mind."
	},
	{
		"count": 2,
		"word": "Need to talk to you."
	},
	{
		"count": 2,
		"word": "All right. What then?"
	},
	{
		"count": 2,
		"word": "How'd you find out?"
	},
	{
		"count": 2,
		"word": "So why'd you return?"
	},
	{
		"count": 2,
		"word": "And?"
	},
	{
		"count": 2,
		"word": "Interesting."
	},
	{
		"count": 2,
		"word": "Argh!"
	},
	{
		"count": 2,
		"word": "Shit!"
	},
	{
		"count": 2,
		"word": "Time to end this."
	},
	{
		"count": 2,
		"word": "That's better."
	},
	{
		"count": 2,
		"word": "Oughta look around."
	},
	{
		"count": 2,
		"word": "Deal."
	},
	{
		"count": 2,
		"word": "What's wrong?"
	},
	{
		"count": 2,
		"word": "Done."
	},
	{
		"count": 2,
		"word": "Get outta my sight."
	},
	{
		"count": 2,
		"word": "Ghouls dug them up."
	},
	{
		"count": 2,
		"word": "Are you?"
	},
	{
		"count": 2,
		"word": "Over my dead body."
	},
	{
		"count": 2,
		"word": "Never mind. Farewell."
	},
	{
		"count": 2,
		"word": "What's your point?"
	},
	{
		"count": 2,
		"word": "Under your \"nose \" Sire. In Novigrad. In a house on the bridge leading to Temple Isle."
	},
	{
		"count": 2,
		"word": "Why do you even care?"
	},
	{
		"count": 2,
		"word": "\"Thanks \" farewell."
	},
	{
		"count": 2,
		"word": "See you \"later \" then."
	},
	{
		"count": 2,
		"word": "How do you feel?"
	},
	{
		"count": 2,
		"word": "Can you walk?"
	},
	{
		"count": 2,
		"word": "This for me?"
	},
	{
		"count": 2,
		"word": "\"Thanks \" innkeep."
	},
	{
		"count": 2,
		"word": "Damn."
	},
	{
		"count": 2,
		"word": "Baron home?"
	},
	{
		"count": 2,
		"word": "What do you think?"
	},
	{
		"count": 2,
		"word": "I need your help."
	},
	{
		"count": 2,
		"word": "What did you do with the child?"
	},
	{
		"count": 2,
		"word": "I'll remember."
	},
	{
		"count": 2,
		"word": "What will you do now?"
	},
	{
		"count": 2,
		"word": "There you are."
	},
	{
		"count": 2,
		"word": "What the...?"
	},
	{
		"count": 2,
		"word": "Thanks for your help. Farewell."
	},
	{
		"count": 2,
		"word": "Don't be afraid."
	},
	{
		"count": 2,
		"word": "Stay close to me."
	},
	{
		"count": 2,
		"word": "What's your name?"
	},
	{
		"count": 2,
		"word": "I remember."
	},
	{
		"count": 2,
		"word": "To Bran."
	},
	{
		"count": 2,
		"word": "We should go."
	},
	{
		"count": 2,
		"word": "Let's try again."
	},
	{
		"count": 2,
		"word": "They say where they were headed?"
	},
	{
		"count": 2,
		"word": "Why'd the giant spare you?"
	},
	{
		"count": 2,
		"word": "So I heard."
	},
	{
		"count": 2,
		"word": "Hadn't returned when I left Ard Skellig."
	},
	{
		"count": 2,
		"word": "He's dead. Trust me."
	},
	{
		"count": 2,
		"word": "Seems more doomed than heroic to me."
	},
	{
		"count": 2,
		"word": "Yeah..."
	},
	{
		"count": 2,
		"word": "Where's the rest of your crew?"
	},
	{
		"count": 2,
		"word": "He's dead."
	},
	{
		"count": 2,
		"word": "Gonna head back to Ard Skellig?"
	},
	{
		"count": 2,
		"word": "So \"long \" an Craite."
	},
	{
		"count": 2,
		"word": "What is this?"
	},
	{
		"count": 2,
		"word": "Why'd you do it?"
	},
	{
		"count": 2,
		"word": "Cerys."
	},
	{
		"count": 2,
		"word": "Craven's blood..."
	},
	{
		"count": 2,
		"word": "What's that?"
	},
	{
		"count": 2,
		"word": "See \"you \" Yen. Take care of yourself."
	},
	{
		"count": 2,
		"word": "Not coming with me?"
	},
	{
		"count": 2,
		"word": "Get out of my way."
	},
	{
		"count": 2,
		"word": "Uh-huh."
	},
	{
		"count": 2,
		"word": "So am I."
	},
	{
		"count": 2,
		"word": "Wake up!"
	},
	{
		"count": 2,
		"word": "None of your business."
	},
	{
		"count": 2,
		"word": "It's personal."
	},
	{
		"count": 2,
		"word": "Ready?"
	},
	{
		"count": 2,
		"word": "Not just yet."
	},
	{
		"count": 2,
		"word": "Fair enough."
	},
	{
		"count": 2,
		"word": "Don't intend to."
	},
	{
		"count": 2,
		"word": "\"No \" I don't."
	},
	{
		"count": 2,
		"word": "Need to think about it."
	},
	{
		"count": 2,
		"word": "Figured as much."
	},
	{
		"count": 2,
		"word": "Really?"
	},
	{
		"count": 2,
		"word": "Not in the mood."
	},
	{
		"count": 2,
		"word": "A doppler?"
	},
	{
		"count": 2,
		"word": "Yeah. Except Dudu's in hiding right now. Priscilla might know \"something \" though."
	},
	{
		"count": 2,
		"word": "Please."
	},
	{
		"count": 2,
		"word": "See you then."
	},
	{
		"count": 2,
		"word": "Not in the mood for jokes."
	},
	{
		"count": 2,
		"word": "Surprised he didn't salute \"you \" general."
	},
	{
		"count": 2,
		"word": "Not what I came here for."
	},
	{
		"count": 2,
		"word": "Forgive me."
	},
	{
		"count": 2,
		"word": "I'm Geralt."
	},
	{
		"count": 2,
		"word": "But--"
	},
	{
		"count": 2,
		"word": "Leave the Puffins alone."
	},
	{
		"count": 2,
		"word": "Probably better if you keep it."
	},
	{
		"count": 2,
		"word": "What's eating you?"
	},
	{
		"count": 2,
		"word": "Let's get outta here."
	},
	{
		"count": 2,
		"word": "All \"right \" let's get to work."
	},
	{
		"count": 2,
		"word": "All right. Time I was on my way."
	},
	{
		"count": 2,
		"word": "Wonderful."
	},
	{
		"count": 2,
		"word": "I know."
	},
	{
		"count": 2,
		"word": "Wanted to talk to you."
	},
	{
		"count": 2,
		"word": "So what now?"
	},
	{
		"count": 2,
		"word": "Sorry to hear that."
	},
	{
		"count": 2,
		"word": "Everything all right?"
	},
	{
		"count": 2,
		"word": "Your Imperial Majesty."
	},
	{
		"count": 2,
		"word": "\"Hey \" wake up."
	},
	{
		"count": 2,
		"word": "Not this time."
	},
	{
		"count": 2,
		"word": "Eskel."
	},
	{
		"count": 2,
		"word": "I'll keep an eye on Letho."
	},
	{
		"count": 2,
		"word": "\"Thanks \" I'll remember that."
	},
	{
		"count": 2,
		"word": "Till next time."
	},
	{
		"count": 2,
		"word": "\"Yeah \" let's get going."
	},
	{
		"count": 2,
		"word": "Gimme a minute. I'm \"old \" need more rest."
	},
	{
		"count": 2,
		"word": "Where will I find him?"
	},
	{
		"count": 2,
		"word": "Fishlung? Interesting."
	},
	{
		"count": 2,
		"word": "Hm. Not too fond of him?"
	},
	{
		"count": 2,
		"word": "Whole \"gaggle \" this time."
	},
	{
		"count": 2,
		"word": "I'll take care of him."
	},
	{
		"count": 2,
		"word": "I wanna help you!"
	},
	{
		"count": 2,
		"word": "Gotta find another way in."
	},
	{
		"count": 2,
		"word": "Where?"
	},
	{
		"count": 2,
		"word": "Don't keep me waiting."
	},
	{
		"count": 2,
		"word": "Hmm... Why not."
	},
	{
		"count": 2,
		"word": "Good. Meet you there."
	},
	{
		"count": 2,
		"word": "I can see that."
	},
	{
		"count": 2,
		"word": "\"Greetings \" Eibhear."
	},
	{
		"count": 2,
		"word": "How'd you meet?"
	},
	{
		"count": 2,
		"word": "Albert Vegelbud?"
	},
	{
		"count": 2,
		"word": "\"Greetings \" Hattori."
	},
	{
		"count": 2,
		"word": "Yes. Promised to \"help \" didn't I?"
	},
	{
		"count": 2,
		"word": "No. Changed my mind."
	},
	{
		"count": 2,
		"word": "Sounds good."
	},
	{
		"count": 2,
		"word": "\"Wait \" you don't even know where to look for these cards?"
	},
	{
		"count": 2,
		"word": "Zed... \"Hm \" sounds familiar."
	},
	{
		"count": 2,
		"word": "No problem. See you \"later \" Zoltan."
	},
	{
		"count": 2,
		"word": "Natalis card - only one missing now. High time we saw Ravvy."
	},
	{
		"count": 2,
		"word": "\"So \" got the full set of cards. What now?"
	},
	{
		"count": 2,
		"word": "Liar."
	},
	{
		"count": 2,
		"word": "The leshen's marked Hilde."
	}
]